<svg xmlns="http://www.w3.org/2000/svg" width="89" height="110" viewBox="0 0 89 110">
  <g fill="none" fill-rule="evenodd">
    <g>
      <path fill="#2A2C30" fill-rule="nonzero" d="M25.263 2.071L66.655 78.643 52.434 75.64 34.88 79.532 34.199 72.301 22.461 70.007z" transform="matrix(-1 0 0 1 89 0) rotate(-54 44.558 40.802)"/>
      <path fill="#F85C1E" fill-rule="nonzero" d="M81.354 62.171L63.805 66.041 63.116 58.828z" transform="matrix(-1 0 0 1 89 0) rotate(-54 72.235 62.435)"/>
      <path fill="#4A505B" d="M27.656 6.729L54.796 80.256 37.245 84.145 40.92 77.713z" transform="matrix(-1 0 0 1 89 0) rotate(-54 41.226 45.437)"/>
    </g>
    <g transform="translate(28 50)">
      <circle cx="29.25" cy="29.75" r="21.25" fill="#168B99"/>
      <path fill="#FFF" fill-rule="nonzero" d="M33.469 25.02c.54-.627 1.488-.697 2.115-.156.57.492.68 1.32.29 1.937l-.133.178-7.16 8.306c-.527.61-1.43.688-2.049.211l-.161-.144-3.445-3.534c-.578-.593-.566-1.543.027-2.121.54-.526 1.373-.563 1.955-.12l.166.147 2.302 2.362 6.093-7.065z"/>
    </g>
  </g>
</svg>
