<?xml version="1.0" encoding="UTF-8"?>
<svg width="33px" height="40px" viewBox="0 0 33 40" version="1.1" xmlns="http://www.w3.org/2000/svg">
  <title>3. Icons/Filetype icons/Excel</title>
  <g id="3.-Icons/Filetype-icons/Excel" stroke="none" stroke-width="1" fill="none" fill-rule="evenodd">
    <g id="files-icon-XLS">
      <g id="PDF">
        <path d="M20,0 L33.3333333,13.3333333 L33.3333333,35.3333333 C33.3333333,37.9106622 31.2439955,40 28.6666667,40 L4.66666667,40 C2.08933783,40 0,37.9106622 0,35.3333333 L0,4.66666667 C0,2.08933783 2.08933783,0 4.66666667,0 L20,0 Z" id="Combined-Shape" fill="#168B99"
              fill-rule="nonzero"></path>
        <path d="M20,0 L28.4309644,0 C31.0082932,0 33.3333333,2.32504009 33.3333333,4.90236893 L33.3333333,13.3333333 L20,0 Z" id="Path" fill="#29B3C3" transform="translate(26.666667, 6.666667) scale(-1, -1) translate(-26.666667, -6.666667) "></path>
      </g>
      <g id="表格图" transform="translate(6.666667, 16.666667)" fill="#FFFFFF" fill-rule="nonzero">
        <path
          d="M13.3210595,0.00530941704 L13.3204676,0.015309417 L13.3249626,0.0160239163 L13.3249626,13.3326158 L12.2152466,13.3326158 L12.2144676,13.3303094 L8.87746756,13.3303094 L8.87844544,13.3326158 L7.76872945,13.3326158 L7.76846756,13.3303094 L5.57146756,13.3303094 L5.5722571,13.3326158 L4.46254111,13.3326158 L4.46246756,13.3303094 L1.11746756,13.3303094 L1.1180867,13.3326158 L0.00837070254,13.3326158 L0.00746756353,13.3303094 L0.00607473842,13.3312383 L0.00607473842,12.2215223 L0.00746756353,12.2213094 L0.00746756353,8.86830942 L0.00530941704,8.8685728 L0.00530941704,7.7588568 L0.00746756353,7.75830942 L0.00746756353,4.40530942 L0.00446756353,4.40590732 L0.00446756353,3.29619133 L0.00746756353,3.29530942 L0.00746756353,1.11430942 L0.00446756353,1.11502541 L0.00446756353,0.00530941704 L13.3210595,0.00530941704 Z M4.46246756,8.86830942 L1.11746756,8.86830942 L1.11746756,12.2213094 L4.46246756,12.2213094 L4.46246756,8.86830942 Z M7.76846756,8.86830942 L5.57146756,8.86830942 L5.57146756,12.2213094 L7.76846756,12.2213094 L7.76846756,8.86830942 Z M12.2144676,8.86830942 L8.87746756,8.86830942 L8.87746756,12.2213094 L12.2144676,12.2213094 L12.2144676,8.86830942 Z M4.46246756,4.40530942 L1.11746756,4.40530942 L1.11746756,7.75830942 L4.46246756,7.75830942 L4.46246756,4.40530942 Z M7.76846756,4.40530942 L5.57146756,4.40530942 L5.57146756,7.75830942 L7.76846756,7.75830942 L7.76846756,4.40530942 Z M12.2144676,4.40530942 L8.87746756,4.40530942 L8.87746756,7.75830942 L12.2144676,7.75830942 L12.2144676,4.40530942 Z M12.2144676,1.11430942 L1.11746756,1.11430942 L1.11746756,3.29530942 L12.2144676,3.29530942 L12.2144676,1.11430942 Z"
          id="Combined-Shape"></path>
      </g>
    </g>
  </g>
</svg>
