<svg xmlns="http://www.w3.org/2000/svg" width="24" height="24" viewBox="0 0 24 24">
  <path fill="#2A2C30"
        d="M17.741 9.283c.293.283.323.737.085 1.055l-.065.076-4.538 4.697c-.297.307-.776.324-1.093.054l-.07-.067-4.336-4.697c-.3-.325-.28-.83.045-1.13.3-.277.754-.281 1.058-.025l.073.07 3.762 4.074 3.948-4.087c.283-.294.737-.324 1.055-.085l.076.065z"/>
</svg>
