<svg xmlns="http://www.w3.org/2000/svg" width="50" height="48" viewBox="0 0 50 48">
  <g fill="none" fill-rule="evenodd">
    <g fill="#F85C1E" fill-rule="nonzero">
      <g>
        <g transform="translate(-695 -525) translate(673 525) translate(22)">
          <ellipse cx="16.667" cy="16" rx="4.167" ry="4"/>
          <ellipse cx="16.667" cy="32" rx="4.167" ry="4"/>
          <ellipse cx="33.333" cy="16" rx="4.167" ry="4"/>
          <ellipse cx="33.333" cy="32" rx="4.167" ry="4"/>
        </g>
      </g>
    </g>
  </g>
</svg>
