<svg xmlns="http://www.w3.org/2000/svg" width="30" height="30" viewBox="0 0 30 30">
  <path fill="#2A2C30"
        d="M15 24l-1.305-1.223C9.06 18.451 6 15.597 6 12.095 6 9.242 8.178 7 10.95 7c1.566 0 3.069.75 4.05 1.936C15.981 7.75 17.484 7 19.05 7 21.822 7 24 9.242 24 12.095c0 3.502-3.06 6.356-7.695 10.691L15 24z"/>
</svg>
