<svg xmlns="http://www.w3.org/2000/svg" width="300" height="225" viewBox="0 0 300 225">
  <g fill="none" fill-rule="evenodd">
    <path fill="#FFF" fill-rule="nonzero"
          d="M150 273.717c82.062 8.92 150-40.591 150-122.773C300 68.762 241.29-13.324 150.768 2.14 60.247 17.605-11.506 64.544 1.536 150.944 14.578 237.344 67.938 264.797 150 273.717z"
          transform="translate(0 -25)"/>
    <path fill="#2A2C30" fill-rule="nonzero" d="M174.424 46.52L100.161 46.177 99.209 246.654 175.06 241.86z"
          transform="translate(0 -25)"/>
    <g>
      <path fill="#F0F4F8" fill-rule="nonzero" d="M0 10.844L0.74 206.536 61.946 212.071 61.946 0.05z"
            transform="translate(0 -25) translate(174.058 35.305)"/>
      <path fill="#D7E1EA" fill-rule="nonzero"
            d="M35.837 116.087l16.38.549v84.341l-16.837-1.122.457-83.768zm-28.364-.915l16.608.663v83.083l-16.608-.893v-82.853zM52.216 12.329v93.034l-16.836-.665V14.983l16.836-2.654zm-28.135 3.774v88.573l-16.608-.664v-85.14l16.608-2.769z"
            transform="translate(0 -25) translate(174.058 35.305)"/>
      <path fill="#C2D5DA" d="M65.748 210.257L65.895 1.434 61.898 0 61.877 212.144z"
            transform="translate(0 -25) translate(174.058 35.305)"/>
      <path fill="#2A2C30" fill-rule="nonzero"
            d="M55.55 107.07c2.749 0 4.981 2.232 4.981 4.982s-2.232 4.982-4.982 4.982-4.982-2.232-4.982-4.982 2.232-4.982 4.982-4.982z"
            transform="translate(0 -25) translate(174.058 35.305)"/>
    </g>
    <g>
      <path fill="#2A2C30" fill-rule="nonzero"
            d="M25.973 80.468l-7.582-5.64c-5.287-.027-10.649-.708-16.114-2.288-1.426.145-2.317.878-2.276 2.638l20.892 13.153c3.147-2.616 4.495-5.238 5.08-7.863z"
            transform="translate(0 -25) translate(62.194 161.14)"/>
      <path fill="#4A505B"
            d="M98.525 18.56s3.758 55.4 56.045 57.652c1.337-3.106 1.116-6.123-.578-9.726 0 0-21.84-1.115-31.124-26.365-4.372-11.893-7.387-34.794-7.387-34.794s-15.129-4.2-16.956 13.232z"
            transform="translate(0 -25) translate(62.194 161.14)"/>
      <path fill="#000"
            d="M99.148 23.29l12.33-2.961c-6.947 9.524-4.32 25.886-4.32 25.886-.185-.098-.366-.197-.545-.299-4.56-8.84-6.59-17.493-7.465-22.626z"
            opacity=".25" transform="translate(0 -25) translate(62.194 161.14)"/>
      <path fill="#4A505B"
            d="M114.093 0s9.257 20.128-13.079 25.951c-22.262 5.805-43.598 16.166-43.598 16.166l-31.8 38.706c-4.519-.384-6.7-2.569-7.594-5.746l29.337-43.443S76.12 11.289 91.566 6.687L114.093 0z"
            transform="translate(0 -25) translate(62.194 161.14)"/>
      <path fill="#2A2C30" fill-rule="nonzero"
            d="M154.081 66.288l.49 9.437c3.35 4.09 6.243 8.655 8.511 13.873 1.02 1.006 2.154 1.225 3.483.071l-3.187-24.48c-4.022-.757-6.902-.124-9.297 1.099z"
            transform="translate(0 -25) translate(62.194 161.14)"/>
    </g>
    <path fill="#F0F4F8" fill-rule="nonzero"
          d="M100.469 46.919L100.469 248.593 92.246 248.593 92.246 46.959 86.038 46.988 86.038 36.382 182.212 39.017 182.212 46.531z"
          transform="translate(0 -25)"/>
    <g>
      <path fill="#F85C1E" fill-rule="nonzero" d="M47.46 3.809L0 0 0 27.793 47.46 25.254z"
            transform="translate(0 -25) translate(112.546 22.75)"/>
      <path fill="#FFF"
            d="M25.136 10.717h-1.22c-.2-.685-.421-1.184-.665-1.496-.243-.312-.536-.467-.878-.467-.614 0-1.103.569-1.465 1.706-.15.46-.27 1.004-.356 1.635-.087.63-.13 1.264-.13 1.902 0 .952.088 1.837.264 2.652.176.816.416 1.462.72 1.938.302.477.633.715.99.715.283 0 .536-.14.76-.421.224-.282.457-.751.698-1.41h1.282c-.23 1.42-.59 2.544-1.078 3.373-.488.83-1.035 1.244-1.638 1.244-.283 0-.558-.096-.826-.288-.268-.192-.515-.463-.74-.812-.226-.35-.434-.773-.624-1.27s-.352-1.041-.484-1.634-.235-1.24-.31-1.944c-.073-.702-.11-1.424-.11-2.164 0-1.083.08-2.118.24-3.105.162-.987.377-1.837.646-2.55.27-.712.59-1.281.964-1.706.373-.425.765-.638 1.174-.638.37 0 .727.163 1.07.49.344.325.653.792.927 1.402.187.425.337.843.451 1.255.114.41.227.942.338 1.593zM28.817 5.978c.41 0 .8.212 1.174.637.373.425.694.996.963 1.712.27.716.485 1.571.644 2.565.16.994.239 2.036.239 3.126 0 1.493-.134 2.857-.4 4.091-.267 1.234-.633 2.205-1.097 2.915-.463.71-.976 1.064-1.538 1.064-.425 0-.83-.209-1.211-.627-.383-.418-.711-.985-.986-1.701-.274-.717-.493-1.574-.654-2.57-.162-.998-.243-2.049-.243-3.152 0-1.117.08-2.175.24-3.172.161-.997.379-1.852.654-2.565.274-.713.604-1.278.989-1.696.384-.418.793-.628 1.226-.628zm-.07 2.776c-.537 0-.994.512-1.374 1.536-.38 1.025-.57 2.268-.57 3.728 0 .733.053 1.425.156 2.076.104.651.244 1.211.42 1.681s.387.841.633 1.116c.247.274.507.411.782.411.557 0 1.02-.497 1.389-1.491.37-.994.554-2.245.554-3.753 0-1.528-.189-2.794-.566-3.798-.377-1.005-.851-1.506-1.424-1.506zM5.883 21.81H4.824s-.71-5.84-2.127-17.523h1.37l1.28 12.23 1.235-12.23h.978l1.217 12.23 1.289-12.23h1.37L9.318 21.81H8.25L7.08 10.217 5.884 21.81zM17.5 19.055h2.036v2.755h-3.273V6.255H17.5v12.8zM15.76 9.115h-2.4v3.63h2.302v2.733H13.36v3.6h2.4v2.732h-3.668V6.382h3.668v2.733zM43.116 9.01h-2.068v3.66h1.982v2.756h-1.982v3.63h2.068v2.754h-3.16V6.255h3.16v2.756zM33.776 21.81h-1.092V6.255h1.497l1.585 11.782 1.566-11.782h1.497V21.81H37.74V10.142L36.205 21.81h-.893l-1.536-11.668V21.81z"
            transform="translate(0 -25) translate(112.546 22.75)"/>
    </g>
    <g>
      <path fill="#F4B9B2"
            d="M49.666 26.432s5.211 5.04 7.115 13.329c6.588 3.874 9.923 1.237 12.326-4.413 0 0-12.19-13.83-12.464-13.765l-6.977 4.85z"
            transform="translate(0 -25) translate(90 82.178)"/>
      <path fill="#4A505B"
            d="M47.502 17.835s-2.148-2.752-1.78-6.624c.55-5.787-3.649-2.046-5.235-4.608-1.994-3.223 5.335-10.8 8.698-3.587 2.664 5.716 6.16-.354 9.148.172 2.305.405.04 3.764 2.114 4.196 2.862.597 4.3 3.07 2.294 6.453-5.593 9.426-15.239 3.998-15.239 3.998z"
            transform="translate(0 -25) translate(90 82.178)"/>
      <g>
        <path fill="#FFC7C0"
              d="M44.905 43.884s11.182 1.329 18.01-4.54l-4.023-5.129s-6.495 3.432-11.551 2.399l-2.436 7.27z"
              transform="translate(0 -25) translate(90 82.178) rotate(-13 196.955 -295.764)"/>
        <path fill="#FFF"
              d="M5.053 0c5.997 9.61 20.813 28.78 42.805 36.624 1.482 3.566.556 5.47-.432 7.311 0 0-29.056 1.165-47.426-21.437L5.053 0z"
              transform="translate(0 -25) translate(90 82.178) rotate(-13 196.955 -295.764)"/>
      </g>
      <path fill="#FFC7C0"
            d="M49.137 9.16s.24 12.493-7.999 16.483c0 0-.734 5.032 5.632 5.068.004 0 12.906.069 14.126-20.957 0 0-7.008.651-11.759-.594z"
            transform="translate(0 -25) translate(90 82.178)"/>
      <path fill="#4A505B"
            d="M49.979 5.402l11.95 4.335-.785 2.977 1.863.196c-.22 3.03-1.13 6.704-3.143 9.83l-.268.404c-1.173.864-1.764-.329-1.764-.329-.17-.534 1.909-4.624.23-10.425l.023.074c-.86-.67-1.953-1.07-3.269-1.079-2.442-.016-5.86 2.122-7.588-1.804l2.75-4.179z"
            transform="translate(0 -25) translate(90 82.178)"/>
      <path fill="#FFC7C0"
            d="M55.998 22.372c1.148-1.034 2.788-1.088 3.66-.12.871.967.647 2.593-.5 3.627-1.149 1.034-2.788 1.088-3.66.12-.872-.967-.648-2.593.5-3.627z"
            transform="translate(0 -25) translate(90 82.178)"/>
      <path fill="#D7E1EA" fill-rule="nonzero" d="M84.257 48.289s9.172 11.152 6.322 23.133l-12.114-7.92 5.792-15.213z"
            transform="translate(0 -25) translate(90 82.178)"/>
      <path fill="#FFF"
            d="M16.928 79.982c-1.213 2.926-1.16 5.849.136 8.77 0 0 22.421 4.391 38.285-10.911.003-.003 9.49-9.158 8.185-26.998-2.461-6.41-6.672-9.729-13.056-7.6 0 0 2.406 36.093-33.55 36.74z"
            transform="translate(0 -25) translate(90 82.178)"/>
      <path fill="#FFF"
            d="M72.498 31.399S87.976 42.13 90.879 74.314c-1.943 11.685-27.178 16.1-35.666 6.834 0 0 4.746-15.207-4.776-37.867 0 0 7.245-14.028 22.06-11.882z"
            transform="translate(0 -25) translate(90 82.178)"/>
      <path fill="#D7E1EA" fill-rule="nonzero"
            d="M56.248 76.97S67 73.651 63.911 57.582c-1.44 7.599-3.442 13.993-7.663 19.386z"
            transform="translate(0 -25) translate(90 82.178)"/>
      <path fill="#FFC7C0"
            d="M9.189 73.173l.025.029c.255.29 2.419 2.708 4.496 3.356 2.401.75 3.203 2.915 2.83 4.385l.787 7.517C7.738 89.785 0 85.285 0 85.285l1.703-8.075c3.091 1.58 6.379 2.62 10.063 2.964.045-.819-.188-1.959-.853-2.543-.044-.04-1.352-.515-1.934-2.734-.368-1.402.21-1.724.21-1.724z"
            transform="translate(0 -25) translate(90 82.178)"/>
    </g>
  </g>
</svg>
