<svg xmlns="http://www.w3.org/2000/svg" xmlns:xlink="http://www.w3.org/1999/xlink" width="405" height="304" viewBox="0 0 405 304">
  <defs>
    <rect id="h3kdxz3t3a" width="94.238" height="59.736" x="0" y="0" rx="15.436"/>
  </defs>
  <g fill="none" fill-rule="evenodd">
    <g>
      <g>
        <g>
          <g>
            <path fill="#F0F4F8" fill-rule="nonzero"
                  d="M44.154 137.078c1.432 2.584 9.08 17.785 15.345 22.964 10.734 8.873 29.088 11.443 54.892-29.374 2.754-4.358 12.76-22.243 14.99-25.58 30.967-46.337 71.175-46.802 80.149-35.567 5.93 7.428 7.298 27.09-5.816 45.69-6.175 8.758-13.455 18.149-20.267 27.338-15.101 20.372-28.174 39.5-23.877 46.612 0 0 10.487 3.005 23.318-5.16 36.04-22.93 83.176-50.017 93.776-26.657 15.404 33.948-90.906 89.428-91.281 89.428H50.33s-40.318-54.873-49.15-99.64c-6.235-31.594 12.82-64.508 42.973-10.054z"
                  transform="translate(-662 -276) translate(601 276) translate(61) matrix(-1 0 0 1 330.075 18.507) matrix(-1 0 0 1 278.19 0)"/>
            <path fill="#C2D5DA" d="M164.348 249.35L159.846 249.35 133.595 172.255 145.526 172.255z" transform="translate(-662 -276) translate(601 276) translate(61) matrix(-1 0 0 1 330.075 18.507)"/>
            <path fill="#C2D5DA" d="M89.026 249.35L84.524 249.35 58.272 172.255 70.204 172.255z" transform="translate(-662 -276) translate(601 276) translate(61) matrix(-1 0 0 1 330.075 18.507) matrix(-1 0 0 1 147.298 0)"/>
            <path fill="#DDEBEF" d="M188.462 186.657l14.888-32.946 44.664-15.724s5.459 0 4.963 6.24l-18.61 42.68s-.992 4.742-5.707 4.243h-34.49s-4.964.749-5.708-4.493z" transform="translate(-662 -276) translate(601 276) translate(61) matrix(-1 0 0 1 330.075 18.507)"/>
            <path fill="#C2D5DA" d="M198.608 190.005H228.856V198.304H198.608z" transform="translate(-662 -276) translate(601 276) translate(61) matrix(-1 0 0 1 330.075 18.507)"/>
            <path fill="#C2D5DA" d="M201.084 190.133L181.438 249.373 177.143 249.373 196.827 190.021 200.758 190.021z" transform="translate(-662 -276) translate(601 276) translate(61) matrix(-1 0 0 1 330.075 18.507)"/>
            <path fill="#C2D5DA" d="M249.139 190.133L229.493 249.373 225.198 249.373 244.882 190.021 248.813 190.021z" transform="translate(-662 -276) translate(601 276) translate(61) matrix(-1 0 0 1 330.075 18.507) matrix(-1 0 0 1 474.338 0)"/>
            <path fill="#DDEBEF" d="M88.97 88.445L139.413 88.445 116.789 67.873 111.259 67.873z" transform="translate(-662 -276) translate(601 276) translate(61) matrix(-1 0 0 1 330.075 18.507)"/>
            <path fill="#DDEBEF" d="M111.19 0H116.792V85.272H111.19z" transform="translate(-662 -276) translate(601 276) translate(61) matrix(-1 0 0 1 330.075 18.507)"/>
            <path fill="#C2D5DA" d="M51.806 164.653H173.268V174.713H51.806z" transform="translate(-662 -276) translate(601 276) translate(61) matrix(-1 0 0 1 330.075 18.507)"/>
          </g>
          <g>
            <g>
              <path fill="#2A2C30" fill-rule="nonzero" d="M55.951 2.798c-4.768-3.6-22.655-1.456-24.908 6.477l1.078 1.613s-2.215-1.068-3.131 1.823c-.917 2.89 2.103 13.221 6.731 19.369 2.074-4.186.278-10.097-.19-18.58 0 0 21.453.076 20.42-10.702z"
                    transform="translate(-662 -276) translate(601 276) translate(61) translate(125.044 .773) translate(76.5 42.036) rotate(-3 42.406 16.593)"/>
              <path fill="#2A2C30" fill-rule="nonzero"
                    d="M41.782 163.58L36.41 266.806c-.434.278-1.464.857-2.899.897-1.62.044-6.78-.69-7.206-.964-8.864-57.637-10.477-97.957-11.024-124.523-.141-6.857 1.464-13.507 3.483-19.99.741-2.382 1.52-4.487 2.209-5.52 0 0 7.743 3.092 25.038 3.092l-.406 6.214c5.118-1.019 13.302-3.168 18.015-7.094 0 0 11.193 50.077-11.785 148.447-.148.635-5.21.937-6.946.889-1.523-.042-2.644-.594-3.17-.898.464-7.122 1.076-17.228 1.467-29.367.389-12.067-.08-36.871-1.404-74.41z"
                    transform="translate(-662 -276) translate(601 276) translate(61) translate(125.044 .773) translate(76.5 42.036)"/>
              <path fill="#F4B9B2" d="M29.935 44.357s10.816-2.733 11.077-16.148h6.342s-2.082 13.54 10.298 16.956l-9.97 12.359-15.447-2.154-2.3-11.013z" transform="translate(-662 -276) translate(601 276) translate(61) translate(125.044 .773) translate(76.5 42.036)"/>
              <path fill="#FFC7C0"
                    d="M111.977 71.058s3.771-5.14 5.656-12.555c.784-3.089.941-6.272 1.785-6.41 0 0 1.594-.846.466 6.53 0 0 2.574-3.352 4.524-11.871 0 0 .93-2.141 1.274.399s-.163 4.251-.163 4.251.425-1.52.626-2.927c.106-.74 1.13-.895 1.419-.206.033.08.065.17.091.273-.046 1.457-.211 3.212-.631 5.163-.406 1.884-.952 3.5-1.489 4.816.313-.489.632-1.004.926-1.56.563-1.065 1.326-2.7 2.126-4.982 0 0 .53-1.051.973.145.15.408.19.849.129 1.28-.547 3.897-3.708 13.773-9.974 21.82l-7.738-4.166z"
                    transform="translate(-662 -276) translate(601 276) translate(61) translate(125.044 .773) translate(76.5 42.036)"/>
              <path fill="#F4B9B2" d="M123.088 58.794c.629-1.52 1.192-3.082 1.695-4.655.507-1.575.943-3.172 1.295-4.787.018-.085.102-.14.187-.122.084.018.138.1.123.184-.315 1.636-.716 3.254-1.188 4.852-.47 1.6-.994 3.176-1.598 4.739-.055.143-.216.214-.36.16-.143-.056-.214-.217-.16-.36l.006-.011z"
                    transform="translate(-662 -276) translate(601 276) translate(61) translate(125.044 .773) translate(76.5 42.036)"/>
              <path fill="#FFC7C0" d="M42 9.263c-8.67 1.405-8.301 6.211-7.787 12.282-.61-.571-1.49-1.09-2.748-1.217-1.412-.142-2.373 1.209-2.006 2.822.291 1.283 2.447 4.212 6.325 4.465 1.926 4.294 5.372 6.446 10.016 6.572 9.99.273 8.05-6.54 5.734-15.522-3.11-12.06-2.745-10.503-9.535-9.402z"
                    transform="translate(-662 -276) translate(601 276) translate(61) translate(125.044 .773) translate(76.5 42.036)"/>
              <path fill="#2A2C30" fill-rule="nonzero"
                    d="M70.921 96.53c1.369 11.62 2.087 24.791 1.481 39.063-23.245 9.282-50.536 4.64-61.83 1.154-.625-39.914 6.163-77.54 17.632-92.195l5.546-1.41s9.216 11.887 20.41.818l4.728 1.397.016.04.03-.042s12.81 28.15 29.387 35.367c11.61 5.054 22.386-17.019 22.477-17.288l17.81 11.217s-6.748 32.136-37.338 30.37c-8.455-.488-15.158-3.73-20.349-8.49z"
                    transform="translate(-662 -276) translate(601 276) translate(61) translate(125.044 .773) translate(76.5 42.036)"/>
              <g transform="translate(-662 -276) translate(601 276) translate(61) translate(125.044 .773) translate(76.5 42.036) rotate(-30 149.77 -14.692)">
                <mask id="lwiotkpd0b" fill="#fff">
                  <use xlink:href="#h3kdxz3t3a"/>
                </mask>
                <use fill="#F85C1E" fill-rule="nonzero" xlink:href="#h3kdxz3t3a"/>
                <path fill="#2A2C30" fill-rule="nonzero" d="M0 10.509H94.238V23.231H0z" mask="url(#lwiotkpd0b)"/>
                <path fill="#D7E1EA" fill-rule="nonzero" d="M11.087 29.868H53.771V36.504999999999995H11.087z" mask="url(#lwiotkpd0b)"/>
              </g>
              <path fill="#778699" fill-rule="nonzero"
                    d="M58.444 45.108c-1.126 3.423-5.673 8.666-14.967 8.947-6.396.193-12.421-3.74-14.967-9.76l4.942-1.56s9.41 12.315 20.686 1.093l4.306 1.28zm-29.81-.797S14.998 69.844 17.986 89.385c1.934 12.642 15.19 20.463 27.157 15.681.263-.105.528-.214.795-.33l4.72 18.08s-27.579 13.112-42.993-8.695c-21.252-30.063 8.432-68.982 20.967-69.81z"
                    transform="translate(-662 -276) translate(601 276) translate(61) translate(125.044 .773) translate(76.5 42.036)"/>
              <path fill="#FFC7C0"
                    d="M46.01 111.846s6.178-1.207 12.502-5.32c2.634-1.714 4.874-3.916 5.58-3.453 0 0 1.725.451-4.022 5.04 0 0 4.112-.71 11.22-5.579 0 0 2.107-.93.661 1.14-1.446 2.069-2.958 2.97-2.958 2.97s1.325-.818 2.41-1.703c.571-.465 1.42.105 1.171.797-.03.081-.067.167-.116.26-1.007 1.024-2.3 2.185-3.908 3.317-1.554 1.094-3.03 1.901-4.3 2.496.554-.146 1.131-.306 1.716-.512 1.121-.396 2.769-1.072 4.874-2.19 0 0 1.089-.408.612.754-.163.396-.43.741-.761 1.013-3.001 2.458-11.898 7.501-21.832 9.15l-2.848-8.18z"
                    transform="translate(-662 -276) translate(601 276) translate(61) translate(125.044 .773) translate(76.5 42.036)"/>
              <path fill="#F4B9B2"
                    d="M62.25 110.087c1.468-.699 2.918-1.475 4.331-2.298 1.418-.823 2.798-1.71 4.13-2.668.07-.051.166-.035.216.037.05.07.034.167-.033.219-1.32.999-2.689 1.926-4.095 2.79-1.407.865-2.838 1.678-4.318 2.426-.135.068-.3.012-.366-.126-.067-.139-.012-.306.123-.375l.005-.002.007-.003z"
                    transform="translate(-662 -276) translate(601 276) translate(61) translate(125.044 .773) translate(76.5 42.036)"/>
            </g>
          </g>
        </g>
      </g>
    </g>
  </g>
</svg>
