<svg xmlns="http://www.w3.org/2000/svg" width="337" height="229" viewBox="0 0 337 229">
  <g fill="none" fill-rule="evenodd">
    <g>
      <path fill="#FFF" d="M0 0H1440V1024H0z" transform="translate(-680 -339)"/>
      <g>
        <g>
          <path fill="#D7E1EA" fill-rule="nonzero" d="M189.531 289.3c91.352 0 165.518 1.882 165.518 4.2 0 2.318-74.166 4.2-165.518 4.2-91.353 0-165.52-1.882-165.52-4.2 0-2.318 74.167-4.2 165.52-4.2z" transform="translate(-680 -339) translate(597 267) translate(63)"/>
          <path fill="#C2D5DA" fill-rule="nonzero"
                d="M73.431 291.079c-1.07-.178-1.794-1.196-1.618-2.272l10.219-59.894c2.535-15.442 15.58-27.03 31.016-27.552.242-.007.484-.015.726-.02 15.732-.345 29.484 10.715 32.675 26.291l13.475 62.047c.218 1.07-.465 2.114-1.528 2.335-1.061.22-2.1-.468-2.32-1.537l-13.474-62.047c-2.808-13.708-14.88-23.458-28.742-23.137-.228.004-.455.01-.682.018-13.57.46-25.04 10.657-27.271 24.245l-10.218 59.895c-.16.967-.992 1.654-1.936 1.654-.106 0-.213-.009-.322-.026z"
                transform="translate(-680 -339) translate(597 267) translate(63)"/>
          <g>
            <path fill="#F85C1E" fill-rule="nonzero" d="M13.945 28.7s-2.895-3.707-2.398-8.926c.743-7.8-4.917-2.756-7.053-6.209C1.807 9.223 11.688-.992 16.217 8.728c3.589 7.702 8.304-.478 12.33.23 3.107.545.052 5.071 2.848 5.653 3.856.804 5.795 4.137 3.089 8.696-7.541 12.704-20.54 5.393-20.54 5.393z"
                  transform="translate(-680 -339) translate(597 267) translate(63) translate(99.934 66.938) scale(-1 1) rotate(-18 0 143.318)"/>
            <path fill="#FFC7C0"
                  d="M15.088 18.24c6.055-.676 11.78 4.907 11.78 4.907C23.172 36.21 19.654 42.002 14.823 41.7c-1.76-.11-3.298-1.343-4.607-2.516-3.368 5.036-4.667 11.33-4.667 11.33C.49 53.287.256 46.772.245 46.166v-.045c1.614-4.997 3.16-9.323 4.635-12.978-2.32-1.881-2.593-4.034-2.253-5.291.322-1.189 1.537-1.963 2.722-1.635.777.215 1.44.74 1.98 1.35 2.88-5.963 5.466-9.072 7.76-9.328z"
                  transform="translate(-680 -339) translate(597 267) translate(63) translate(99.934 66.938)"/>
          </g>
          <g>
            <path fill="#2A2C30" fill-rule="nonzero" d="M127.918 147.444l6.3 4.869s12.074-12.33 17.95-15.987c.886-.55 1.997.244 1.755 1.259-.76 3.195-2.703 10.939-17.773 20.426l-11.486-8.879 3.254-1.688z" transform="translate(-680 -339) translate(597 267) translate(63) translate(79.575 113.06)"/>
            <path fill="#FFC7C0" d="M134.217 152.313l-.183-.14-5.129-3.966-2.405 2.345 5.513 4.261c2.33 1.8 14.192-4.763 14.67-14.274-5.827 4.996-12.466 11.774-12.466 11.774z" transform="translate(-680 -339) translate(597 267) translate(63) translate(79.575 113.06)"/>
            <path fill="#2A2C30" fill-rule="nonzero" d="M30.27 154.588l-2.242 8.093s16.834 6.889 22.738 11.175c.89.645.558 2.046-.527 2.214-3.42.53-11.746 1.714-26.998-9.233l4.087-14.756 2.942 2.507z" transform="translate(-680 -339) translate(597 267) translate(63) translate(79.575 113.06)"/>
            <path fill="#FFC7C0" d="M28.028 162.68l.066-.235 1.824-6.59-3.244-1.415-1.96 7.083c-.83 2.992 10.295 11.969 19.76 8.651-7.192-3.706-16.446-7.493-16.446-7.493z" transform="translate(-680 -339) translate(597 267) translate(63) translate(79.575 113.06)"/>
            <path fill="#F4B9B2" d="M75.471 47.02s4.315-6.602 5.854-7.723c.59-.43 5.816 5.275-1.284 11.342-2.508 2.143-11.182 4.535-11.182 4.535l-1.565-5.008 8.177-3.146z" transform="translate(-680 -339) translate(597 267) translate(63) translate(79.575 113.06)"/>
            <path fill="#F4B9B2" d="M90.307 44.55s-3.787-4.752-8.982-5.253c0 0-1.529 2.078.818 3.004 4.09.452 7.415 3.125 7.415 3.125s1.586.49.75-.875z" transform="translate(-680 -339) translate(597 267) translate(63) translate(79.575 113.06)"/>
            <path fill="#F4B9B2" d="M89.465 46.025s-3.787-4.753-8.982-5.255c0 0-1.529 2.079.818 3.005 4.09.452 7.415 3.125 7.415 3.125s1.586.491.75-.875z" transform="translate(-680 -339) translate(597 267) translate(63) translate(79.575 113.06)"/>
            <path fill="#2A2C30" fill-rule="nonzero" d="M25.91 4.39s-1.692 27.38 15.615 32.656c8.105 2.47 18.313.789 30.028-2.514l3.85 19.69S19.895 71.121 14.872 30.148c-1.294-10.55 3.022-24.031 11.038-25.757z"
                  transform="translate(-680 -339) translate(597 267) translate(63) translate(79.575 113.06)"/>
            <path fill="#778699" fill-rule="nonzero" d="M82.685 79.009s15.753 33.785 48.485 69.617l-4.91 4.506s-36.008-18.147-53.397-58.69c0 0-.201-17.071 9.822-15.433z" transform="translate(-680 -339) translate(597 267) translate(63) translate(79.575 113.06)"/>
            <path fill="#4A505B" d="M34.887 69.741s50.591 2.725 63.037 8.852c0 0 5.663 4.408 1.38 13.19-4.286 8.78-66.005 67.656-66.005 67.656-5.397.933-7.658-.978-9.226-3.516 0 0 24.494-44.924 52.926-64.475 0 0-46.805 1.166-67.005-5.777 0 0 14.487-16.95 24.893-15.93z"
                  transform="translate(-680 -339) translate(597 267) translate(63) translate(79.575 113.06)"/>
            <path fill="#2A2C30" fill-rule="nonzero" d="M4.187 86.283S-12.45 34.923 20.604 0l5.305 4.39s1.377 39.2 16.782 64.78c0 0-15.244 15.888-38.504 17.113z" transform="translate(-680 -339) translate(597 267) translate(63) translate(79.575 113.06)"/>
            <path fill="#6D8388"
                  d="M84.523 13.145l2.72.963v.026l.303.003c.054 0 .098.045.097.099l-.002.095c0 .054-.044.097-.098.096l-.304-.004v.027l-2.74.904c-1.84-.27-3.34-.286-3.34-.286l-14.717-.363.002-.176-.576-.007c-.175-.002-.316-.146-.314-.32l.003-.31c.002-.175.146-.316.321-.314l.576.005.002-.176 14.72-.047h.12c.39-.001 1.69-.022 3.227-.215z"
                  transform="translate(-680 -339) translate(597 267) translate(63) translate(79.575 113.06)"/>
            <path fill="#FFC7C0"
                  d="M75.616 9.75s.3.143.756.37l.368.184c1.507.759 4.002 2.073 4.052 2.485 0 0-.157.257-.9.271.489.096 1.014.28 1.261.63 0 0 .423.344-.146.87 0 0-.89.07-2.913.834.392-.037.738.005.994.164 0 0 1.006.442.106 1.585 0 0-.407.323-1.146.765.275-.041.525-.026.73.067 0 0 .966.28.285 1.428 0 0-1.12 1.154-3.082 2.257 0 0-.033-.007-.09-.025-.069.996-.298 2.112-.735 3.358-1.035 2.943-6.726 8.848-7.344 9.483l-.054.056-3.866-3.544 5.496-6.829s.421-7.878 1.19-9.621l.014-.025.014-.014c.34-.452 3.605-4.753 5.01-4.75zm.91 2.54l-1.234 1.472c.987-.461 2.192-.825 3.52-.81l-.127-.024c-.562-.114-1.27-.312-2.159-.638z"
                  transform="translate(-680 -339) translate(597 267) translate(63) translate(79.575 113.06)"/>
            <path fill="#0D0D0E" fill-rule="nonzero" d="M10.012 43.903s1.05.853 1.27 1.454c2.06 5.66 5.888 10.355 19.066 15.599 0 0-10.814 3.872-17.474-6.025-1.588-2.36-3.263-6.836-2.862-11.028z" transform="translate(-680 -339) translate(597 267) translate(63) translate(79.575 113.06)"/>
            <path fill="#4A505B" d="M13.122 18.274s8.972 24.541 26.481 21.405c8.737-1.565 17.17-4.56 24.869-14.126l6.244 7.756s-22.01 49.685-57.028 19.446c-8.566-7.398-6.139-28.44-.566-34.481z" transform="translate(-680 -339) translate(597 267) translate(63) translate(79.575 113.06)"/>
          </g>
          <g fill-rule="nonzero">
            <path fill="#C2D5DA"
                  d="M18.677 157.46c-1.077-.179-1.805-1.196-1.627-2.273L27.53 94.78c2.55-15.442 15.665-27.029 31.186-27.551.243-.008.487-.015.73-.02 15.829-.345 29.645 10.715 32.853 26.291l11.832 62.333c.22 1.07-.468 2.114-1.536 2.335-1.066.22-2.112-.468-2.332-1.537L88.432 94.297c-2.824-13.708-14.971-23.458-28.899-23.138-.229.005-.457.011-.685.019-13.645.46-25.177 10.656-27.42 24.245l-10.481 60.409c-.16.966-.997 1.654-1.947 1.654-.107 0-.215-.009-.323-.027z"
                  transform="translate(-680 -339) translate(597 267) translate(63) translate(42.429 134.6)"/>
            <path fill="#C2D5DA" d="M39.02 77.467c-15.438 0-21.976-13.07-22.044-13.21-.436-.898-.1-1.997.752-2.456.852-.46 1.894-.105 2.331.79.265.536 6.39 12.564 21.41 11.105.956-.083 1.797.646 1.885 1.65.088 1.004-.614 1.892-1.567 1.984-.952.092-1.875.137-2.767.137"
                  transform="translate(-680 -339) translate(597 267) translate(63) translate(42.429 134.6)"/>
            <path fill="#D7E1EA"
                  d="M16.199 1.822c6.92 1.472 12.364 6.866 13.81 13.86l4.984 24.127c2.894 14.012-8.842 27.05-22.834 24.804-.395-.063-.792-.138-1.193-.222L.156 9.528C-.987 3.718 4.317-1.272 9.972.29c1.987.55 4.094 1.078 6.228 1.532zM93.334 80.267H39.546c-2.774 0-5.044-2.26-5.044-5.02v-2.093c0-2.761 2.27-5.02 5.044-5.02h53.788c2.774 0 5.045 2.259 5.045 5.02v2.092c0 2.761-2.27 5.02-5.045 5.02"
                  transform="translate(-680 -339) translate(597 267) translate(63) translate(42.429 134.6)"/>
          </g>
          <g>
            <path fill="#C2D5DA" d="M21.265 3.267h24.711v-.934c0-.773-.626-1.4-1.4-1.4h-23.31v2.334z" transform="translate(-680 -339) translate(597 267) translate(63) translate(155.727 165.4)"/>
            <path fill="#97B2B8"
                  d="M24.843.933V.467c0-.258.209-.467.466-.467h18.792c.258 0 .467.209.467.467v.466H24.843zm-3.272 0V.467c0-.258.209-.467.466-.467h1.74c.258 0 .467.209.467.467v.466H21.57zm-4.08 0V.467c0-.258.21-.467.468-.467h1.74c.257 0 .466.209.466.467v.466h-2.673zm-4.078 0V.467c0-.258.209-.467.467-.467h1.74c.257 0 .466.209.466.467v.466h-2.673zm-9.217 0c0-.515.418-.933.934-.933h.806c.515 0 .933.418.933.933H4.196zm5.024 0V.467c0-.258.209-.467.466-.467h1.74c.258 0 .467.209.467.467v.466H9.22z"
                  transform="translate(-680 -339) translate(597 267) translate(63) translate(155.727 165.4)"/>
            <path fill="#DDEBEF" d="M0 3.267h23.313v-.934c0-.773-.627-1.4-1.4-1.4H1.4c-.773 0-1.4.627-1.4 1.4v.934z" transform="translate(-680 -339) translate(597 267) translate(63) translate(155.727 165.4)"/>
          </g>
          <g>
            <path fill="#C2D5DA" d="M145.991 123.557L182.825 123.557 182.825 6.96 145.991 6.96z" transform="translate(-680 -339) translate(597 267) translate(63) translate(134.746 168.667)"/>
            <path fill="#DDEBEF" fill-rule="nonzero" d="M103.576 123.557L146.351 123.557 146.351 6.96 103.576 6.96z" transform="translate(-680 -339) translate(597 267) translate(63) translate(134.746 168.667)"/>
            <path fill="#778699" fill-rule="nonzero" d="M107.306 9.224v114.333h-.932V98.933h-2.867V98h2.867V66.266h-2.867v-.933h2.867V37.8h-2.867v-.933l2.867-.001V9.224h.932z" opacity=".3" transform="translate(-680 -339) translate(597 267) translate(63) translate(134.746 168.667)"/>
            <path fill="#DDEBEF" fill-rule="nonzero" d="M19.102 123.626L22.832 123.626 22.832 6.96 19.102 6.96z" transform="translate(-680 -339) translate(597 267) translate(63) translate(134.746 168.667)"/>
            <path fill="#C2D5DA" d="M110.035 9.333h82.117c1.031 0 1.867-.835 1.867-1.866v-5.6c0-1.031-.836-1.867-1.867-1.867h-82.117v9.333z" transform="translate(-680 -339) translate(597 267) translate(63) translate(134.746 168.667)"/>
            <path fill="#DDEBEF" fill-rule="nonzero" d="M114.453 9.333H3.095C1.385 9.333 0 8.013 0 6.386V2.948C0 1.32 1.386 0 3.095 0h111.358c1.031 0 1.867.836 1.867 1.867v5.6c0 1.03-.836 1.866-1.867 1.866z"
                  transform="translate(-680 -339) translate(597 267) translate(63) translate(134.746 168.667)"/>
          </g>
          <g>
            <path fill="#DDEBEF" d="M13.938 18.916s1.94-8.966 6.093-12.806c0 0-.902 6.528-5.255 12.806h-.838z" transform="translate(-680 -339) translate(597 267) translate(63) translate(272.756 136.933)"/>
            <path fill="#C2D5DA" d="M10.278 20.061s1.23-7.458 8.594-14.639c0 0-1.466 7.45-7.668 15.014l-.926-.375z" transform="translate(-680 -339) translate(597 267) translate(63) translate(272.756 136.933) rotate(-17.096 14.575 12.929)"/>
            <path fill="#DDEBEF" d="M8.866 19.046s3.04-9.164 8.408-15.647c0 0-2.057 9.345-7.482 16.021l-.926-.374z" transform="translate(-680 -339) translate(597 267) translate(63) translate(272.756 136.933) scale(-1 1) rotate(-36.268 0 51.317)"/>
            <path fill="#DDEBEF" d="M3.378 18.196s3.041-9.163 8.41-15.646c0 0-2.058 9.344-7.484 16.02l-.926-.374z" transform="translate(-680 -339) translate(597 267) translate(63) translate(272.756 136.933) scale(-1 1) rotate(-14.165 0 71.589)"/>
            <path fill="#C2D5DA" d="M7.211 19.142s2.405-8.876 8.41-15.646c0 0-1.729 9-7.484 16.02l-.926-.374z" transform="translate(-680 -339) translate(597 267) translate(63) translate(272.756 136.933) scale(-1 1) rotate(-24.856 0 63.307)"/>
            <path fill="#DDEBEF" d="M4.943 17.905s2.665-9.119 9.453-16.38c0 0-1.759 8.843-8.527 16.754l-.926-.374z" transform="translate(-680 -339) translate(597 267) translate(63) translate(272.756 136.933) scale(-1 1) rotate(-24.199 0 55.007)"/>
            <path fill="#C2D5DA" d="M1.015 19.376s3.042-9.163 8.41-15.646c0 0-2.057 9.344-7.484 16.02l-.926-.374z" transform="translate(-680 -339) translate(597 267) translate(63) translate(272.756 136.933) scale(-1 1) rotate(-5.668 0 117.2)"/>
            <path fill="#DDEBEF" d="M16.375 20.136H5.408v7.444c0 1.1.422 2.152 1.177 2.929.754.777 1.777 1.214 2.842 1.214h2.927c1.067 0 2.088-.437 2.843-1.214.754-.777 1.178-1.83 1.178-2.929v-7.444z" transform="translate(-680 -339) translate(597 267) translate(63) translate(272.756 136.933)"/>
            <path fill="#F2F8F9" d="M4.19 22.576V20.79c0-.818.215-1.606.6-2.186.385-.583.907-.907 1.452-.907h9.909c.544 0 1.067.324 1.45.907.385.58.602 1.368.602 2.186v1.786H4.19z" transform="translate(-680 -339) translate(597 267) translate(63) translate(272.756 136.933)"/>
          </g>
          <g>
            <path fill="#C2D5DA" d="M41.784.233h37.93c1.29 0 2.334 1.045 2.334 2.334 0 .426-.117.844-.338 1.208L46.896 61.26c-1.268 2.094-3.539 3.373-5.988 3.373H2.9c-.773 0-1.4-.626-1.4-1.4 0-.255.07-.506.203-.725l36.49-60.25C38.952 1 40.315.233 41.784.233z"
                  transform="translate(-680 -339) translate(597 267) translate(63) translate(162.721 91.667)"/>
            <path fill="#97B2B8" d="M13.055 57.867H21.914V58.867H13.055z" transform="translate(-680 -339) translate(597 267) translate(63) translate(162.721 91.667)"/>
            <path fill="#97B2B8" d="M12.123 58.8H20.982V59.8H12.123z" transform="translate(-680 -339) translate(597 267) translate(63) translate(162.721 91.667)"/>
            <path fill="#97B2B8" d="M11.19 59.733H20.049V60.733H11.19z" transform="translate(-680 -339) translate(597 267) translate(63) translate(162.721 91.667)"/>
            <path fill="#DDEBEF" d="M41.865.233c.829 0 1.5.672 1.5 1.5 0 .275-.074.543-.216.778L6.935 62.356c-.856 1.414-2.388 2.277-4.04 2.277-.829 0-1.5-.671-1.5-1.5 0-.274.074-.543.216-.777L37.825 2.511c.856-1.414 2.388-2.278 4.04-2.278z"
                  transform="translate(-680 -339) translate(597 267) translate(63) translate(162.721 91.667)"/>
            <path fill="#C2D5DA" d="M68.65 76.148c-.483.542-1.175.852-1.901.852H60.3c.917-1.03 1.115-2.514.5-3.748L41.244 34.067h7.355l20.297 40.209c.31.615.213 1.357-.245 1.872z" transform="translate(-680 -339) translate(597 267) translate(63) translate(162.721 91.667)"/>
            <path fill="#DDEBEF" d="M62.003 73.912c.534 1.026.137 2.29-.888 2.825-.298.156-.63.238-.967.238H46.48c0-1.107.896-1.538 2.003-1.538h11.608c.257 0 .466-.209.466-.467 0-.074-.018-.148-.052-.214L40.097 35.204l1.147-1.137 20.76 39.845z"
                  transform="translate(-680 -339) translate(597 267) translate(63) translate(162.721 91.667)"/>
          </g>
        </g>
      </g>
    </g>
  </g>
</svg>
