<svg xmlns="http://www.w3.org/2000/svg" width="320" height="241" viewBox="0 0 320 241">
  <g fill="none" fill-rule="evenodd">
    <g>
      <g>
        <g>
          <g>
            <g>
              <path fill="#F85C1E" fill-rule="nonzero" d="M6.849 0L40.928 6.882 49.686 27.193 0 18.129z" transform="translate(-559 -340) translate(263 151) translate(187 145) translate(109 37) translate(27.897 42.264)"/>
              <path fill="#FFF" d="M39.47 6.891s-1.115 9.62 7.73 19.566h1.68L40.435 6.89h-.966z" transform="translate(-559 -340) translate(263 151) translate(187 145) translate(109 37) translate(27.897 42.264)"/>
            </g>
            <g>
              <path fill="#5C7594"
                    d="M213.926 160.51s5.614-5.942 8.888-16.074c.11-.344.356-.63.68-.79.416-.206.742-.07 1.013.282.231.3.337.679.296 1.056-.274 2.182-1.862 12.115-8.695 19.958 0 0-2.887-1.108-7.52-3.894l1.175-2.753 4.163 2.216zM124.665 191.127s8.323 2.599 19.56.988c.292-.043.59.012.85.156.614.343.646.802.346 1.33-.175.31-.454.546-.789.668-2.152.737-12.441 3.901-23.186 1.017 0 0-.29-3.28.211-9.014l3.183-.162-.175 5.017z"
                    transform="translate(-559 -340) translate(263 151) translate(187 145) translate(109 37) translate(42.878 49.54)"/>
              <path fill="#2A2C30" fill-rule="nonzero" d="M83.869 83.968s39.95 7.52 66.27 21.485l61.772 50.223c-.727 3.139-2.132 5.003-3.76 6.446 0 0-40.487-14.033-67.613-40.084 0 0-51.902-11.213-70.433-24.642l13.764-13.428z"
                    transform="translate(-559 -340) translate(263 151) translate(187 145) translate(109 37) translate(42.878 49.54)"/>
              <path fill="#000" d="M138.852 121.662l9.273-12.75c.74 8.347-1.514 15.199-2.508 17.74-1.734-1.494-3.431-3.032-5.079-4.614 0 0-.597-.13-1.686-.376z" opacity=".074" transform="translate(-559 -340) translate(263 151) translate(187 145) translate(109 37) translate(42.878 49.54)"/>
              <path fill="#2A2C30" fill-rule="nonzero" d="M54.435 108.547s16.965 17.542 69.797 13.386c0 0-6.695 19.387-4.837 62.923 0 0 3.044 2.698 6.984.498l21.789-76.275s-29.265-9.785-74.29-17.24l-19.443 16.708z"
                    transform="translate(-559 -340) translate(263 151) translate(187 145) translate(109 37) translate(42.878 49.54)"/>
              <path fill="#4A505B" d="M40.427 24.277S64.735 29.21 81.57 55.083c.949 1.459 6.116 13.27-.706 19.545-1.514 1.392-3.529 2.666-6.192 3.7-19.165 7.433-37.668-4.096-37.668-4.096l2.82-9.736s16.719 5.573 31.02-.067c0 0-17.927-10.475-30.416-40.152z"
                    transform="translate(-559 -340) translate(263 151) translate(187 145) translate(109 37) translate(42.878 49.54)"/>
              <path fill="#4A505B" d="M25.521 33.476s-14.502 38.473 26.79 79.43l32.834-28.939S58.489 55.096 40.495 24.21c0 0-9.334-1.544-14.974 9.266z" transform="translate(-559 -340) translate(263 151) translate(187 145) translate(109 37) translate(42.878 49.54)"/>
              <path fill="#FFC7C0" d="M26.758 18.605S34.14 23.1 37.24 29.852c0 0-.25 8.287-7.328 4.708-1.59-4.945-4.584-8.745-8.721-11.614l5.567-4.341z" transform="translate(-559 -340) translate(263 151) translate(187 145) translate(109 37) translate(42.878 49.54)"/>
              <path fill="#000" fill-rule="nonzero" d="M53.346 43.013c-.235-.13-.322-.424-.193-.66.129-.235.424-.321.659-.193 5.372 2.938 10.817 9.646 12.771 16.09.078.257-.067.528-.323.606-.257.077-.528-.068-.606-.324-1.881-6.201-7.16-12.704-12.308-15.52z" opacity=".089"
                    transform="translate(-559 -340) translate(263 151) translate(187 145) translate(109 37) translate(42.878 49.54)"/>
              <path fill="#FFC7C0" d="M10.952 8.232s7.403 3.624 22.05.864c0 0 3.358 3.644-1.036 10.003-.971 1.423-2.345 2.523-3.946 3.16-3.439 1.371-10.317 3.002-18.676-.875-.103-.048-.178-.142-.203-.253-.024-.111.005-.227.08-.315 1.066-1.32 4.402-6.13 2.229-12.373"
                    transform="translate(-559 -340) translate(263 151) translate(187 145) translate(109 37) translate(42.878 49.54)"/>
              <path fill="#2A2C30" fill-rule="nonzero"
                    d="M21.087 23.55s-1.436 4.022-10.236 3.492c-1.432-.08-2.844-.374-4.189-.87-1.807-.66-4.324-1.814-5.405-3.358-2.489-3.55-.513-8.116-.513-8.116s3.239 2.8 3.47-1.54c.052-1.005-.07-2.01-.363-2.972-.447-1.492-1.217-4.502-1.02-6.848.057-.642.525-1.172 1.154-1.31.63-.138 1.277.148 1.598.708.62 1.092 1.286 2.782 1.786 5.386 0 0-.695-7.894 2.673-8.122 0 0 6.716.66.003 21.354 0 0 3.95 1.576 11.093.992"
                    transform="translate(-559 -340) translate(263 151) translate(187 145) translate(109 37) translate(42.878 49.54)"/>
              <path fill="#D7E1EA" fill-rule="nonzero" d="M99.547 123.18l11.884 73.118h-5.035L89.274 123.18h10.273zm-44.784 0L37.64 196.297h-5.036l11.884-73.119h10.274z" transform="translate(-559 -340) translate(263 151) translate(187 145) translate(109 37) translate(42.878 49.54)"/>
              <path fill="#37393E" d="M37.001 52.734s-.157 24.712 19.966 22.632c0 0 7.983-1.176 4.882-14.624 0 0 2.195-3.94 4.17-2.214 11.372 9.946 6.732 32.644-11.287 34.616-14.706 1.61-27.578-4.321-29.908-22.562 0 0-1.54-19.86 12.177-17.848z"
                    transform="translate(-559 -340) translate(263 151) translate(187 145) translate(109 37) translate(42.878 49.54)"/>
              <path fill="#F85C1E" fill-rule="nonzero"
                    d="M49.492 110.993h50.127c.274-.034.552-.05.834-.05 3.641 0 6.597 2.842 6.597 6.344 0 3.202-2.47 5.853-5.676 6.284l-.048.045-.417.001c-.15.01-.302.015-.456.015-.132 0-.264-.004-.394-.01l-59.967.262S19.835 87.879 15.185 68.677c-.368-1.568.436-3.176 1.912-3.821v-.003c1.485-.65 3.222-.116 4.087 1.256l28.308 44.884z"
                    transform="translate(-559 -340) translate(263 151) translate(187 145) translate(109 37) translate(42.878 49.54)"/>
            </g>
            <g>
              <path fill="#DDEBEF" d="M38.625 0C59.942 0 77.25 17.307 77.25 38.625c0 21.317-17.308 38.625-38.625 38.625C17.307 77.25 0 59.942 0 38.625 0 17.307 17.307 0 38.625 0z" transform="translate(-559 -340) translate(263 151) translate(187 145) translate(109 37) translate(142.4 .6)"/>
              <path fill="#97B2B8"
                    d="M38.737 70.048c1.056 0 1.914.857 1.914 1.914 0 1.056-.858 1.913-1.914 1.913s-1.913-.857-1.913-1.913c0-1.057.857-1.914 1.913-1.914zM5.396 36.936c1.056 0 1.914.857 1.914 1.914 0 1.056-.858 1.913-1.914 1.913s-1.914-.857-1.914-1.913c0-1.057.858-1.914 1.914-1.914zm66.674-.225c1.056 0 1.913.858 1.913 1.914s-.857 1.913-1.913 1.913c-1.057 0-1.914-.857-1.914-1.913s.857-1.914 1.914-1.914zM38.512 3.374c1.056 0 1.914.858 1.914 1.914s-.858 1.914-1.914 1.914S36.6 6.344 36.6 5.288s.857-1.914 1.913-1.914z"
                    transform="translate(-559 -340) translate(263 151) translate(187 145) translate(109 37) translate(142.4 .6)"/>
              <path fill="#FF9E14" d="M38.834 35.805c1.667 0 3.02 1.354 3.02 3.021 0 1.668-1.353 3.022-3.02 3.022-1.668 0-3.022-1.354-3.022-3.022 0-1.667 1.354-3.021 3.022-3.021z" transform="translate(-559 -340) translate(263 151) translate(187 145) translate(109 37) translate(142.4 .6)"/>
              <path fill="#2A2C30" fill-rule="nonzero" d="M35.39 43.975c-.346.389-.942.424-1.331.078-.39-.346-.425-.942-.079-1.33l14.436-16.248c.345-.39.941-.425 1.33-.08.39.347.425.943.08 1.332L35.39 43.975z"
                    transform="translate(-559 -340) translate(263 151) translate(187 145) translate(109 37) translate(142.4 .6)"/>
              <path fill="#2A2C30" fill-rule="nonzero" d="M34.802 67.11c-.093.512-.584.852-1.096.76-.512-.094-.852-.585-.76-1.097l5.45-30.005c.093-.513.583-.853 1.096-.76.512.093.852.584.759 1.096L34.802 67.11z"
                    transform="translate(-559 -340) translate(263 151) translate(187 145) translate(109 37) translate(142.4 .6)"/>
              <path fill="#F85C1E" fill-rule="nonzero" d="M18.299 16.011c-.218-.25-.191-.629.059-.846.25-.218.629-.191.846.059l24.108 27.73c.218.25.191.63-.059.847-.25.218-.629.191-.846-.059l-24.108-27.73z"
                    transform="translate(-559 -340) translate(263 151) translate(187 145) translate(109 37) translate(142.4 .6)"/>
            </g>
            <g>
              <path fill="#FFF" d="M43.821 7.322s2.058 7.641-7.94 23.564h-1.739l8.54-23.564h1.14z" transform="translate(-559 -340) translate(263 151) translate(187 145) translate(109 37) translate(23.6 41.8)"/>
              <path fill="#F85C1E" fill-rule="nonzero" d="M9.157.531L42.678 7.346 33.706 32.088 0 25.307zM45.242 6.799L11.189.002 9.167.002 42.65 6.801z" transform="translate(-559 -340) translate(263 151) translate(187 145) translate(109 37) translate(23.6 41.8)"/>
              <path fill="#CA3F08" fill-rule="nonzero" d="M9.162 0L42.665 6.804 42.665 7.344 9.162 0.533z" transform="translate(-559 -340) translate(263 151) translate(187 145) translate(109 37) translate(23.6 41.8)"/>
              <path fill="#CA3F08" fill-rule="nonzero" d="M42.654 7.341L45.223 7.341 45.223 6.804 42.654 6.804z" transform="translate(-559 -340) translate(263 151) translate(187 145) translate(109 37) translate(23.6 41.8)"/>
            </g>
          </g>
        </g>
      </g>
    </g>
  </g>
</svg>
