<svg xmlns="http://www.w3.org/2000/svg" width="271" height="186" viewBox="0 0 271 186">
  <g fill="none" fill-rule="evenodd">
    <g>
      <path fill="#2A2C30" fill-rule="nonzero" d="M19.843 1.565L51.117 59.419 40.372 57.15 27.11 60.091 26.595 54.627 17.726 52.894z" transform="matrix(-1 0 0 1 271 0) rotate(-54 34.421 30.828)"/>
      <path fill="#F85C1E" fill-rule="nonzero" d="M62.223 46.974L48.964 49.898 48.443 44.448z" transform="matrix(-1 0 0 1 271 0) rotate(-54 55.333 47.173)"/>
      <path fill="#4A505B" d="M21.651 5.084L42.157 60.638 28.897 63.576 31.673 58.716z" transform="matrix(-1 0 0 1 271 0) rotate(-54 31.904 34.33)"/>
      <path stroke="#D7E1EA" stroke-dasharray="4" stroke-linecap="round" stroke-width="2"
            d="M217.3 104.426c-7.005 1.404-35.978 25.223-43.245-13.597-1.58-8.437-7.019-15.413-16.628-17.107-9.608-1.694-16.536 8.825-22.687 17.422-6.364 8.894-13.796 24.246-22.797 22.556C99.659 111.39 105.825 82.4 96.41 80.74c-7.537-1.329-6.982 9.317-19.745 6.14-12.764-3.177-5.32-29.314-14.475-31.513"
            transform="matrix(-1 0 0 1 271 0)"/>
    </g>
    <g fill-rule="nonzero">
      <path fill="#F0F4F8" d="M107.2 109.976L26.721 129.6 0 19.624 80.48 0z" transform="translate(0 18)"/>
      <path fill="#D7E1EA"
            d="M90.784 77.38l-18.673 4.577c-1.296.316-2.602-.484-2.916-1.786L54.412 19.019c-.315-1.304.479-2.618 1.776-2.934l18.673-4.578c1.295-.317 2.6.483 2.916 1.787l14.782 61.15c.315 1.304-.48 2.618-1.775 2.936M71.621 107.27c.191.793-.292 1.591-1.079 1.785l-39.205 9.608c-.788.194-1.581-.292-1.772-1.085-.192-.793.29-1.592 1.078-1.784l39.204-9.609c.788-.193 1.582.293 1.774 1.085zm-1.777-7.352c.19.793-.292 1.591-1.08 1.785L29.56 111.31c-.787.194-1.58-.292-1.772-1.085-.191-.793.29-1.592 1.077-1.785l39.206-9.608c.788-.193 1.58.293 1.773 1.085zm-1.778-7.352c.192.793-.29 1.593-1.078 1.785l-39.205 9.608c-.788.194-1.581-.292-1.774-1.085-.19-.793.292-1.592 1.08-1.784l39.204-9.609c.788-.193 1.582.293 1.773 1.085zm-1.776-7.351c.19.792-.292 1.592-1.08 1.784l-39.204 9.608c-.789.194-1.582-.292-1.773-1.085-.192-.792.29-1.592 1.078-1.784l39.206-9.609c.786-.192 1.58.293 1.773 1.086zm-1.778-7.352c.191.792-.292 1.592-1.079 1.784l-39.205 9.609c-.787.193-1.58-.293-1.772-1.086-.19-.792.29-1.59 1.078-1.784l39.206-9.609c.787-.192 1.58.293 1.772 1.086zm-1.777-7.352c.191.792-.291 1.592-1.079 1.784l-39.204 9.608c-.79.194-1.582-.292-1.773-1.085-.192-.792.29-1.59 1.078-1.784l39.205-9.609c.787-.192 1.581.293 1.773 1.086zm-1.777-7.352c.19.793-.292 1.591-1.08 1.785l-39.204 9.608c-.787.194-1.58-.294-1.772-1.085-.192-.793.29-1.592 1.078-1.785l39.206-9.608c.786-.193 1.58.293 1.772 1.085zm-1.778-7.352c.192.793-.29 1.591-1.078 1.785L18.897 67.2c-.788.194-1.581-.294-1.773-1.085-.191-.793.292-1.592 1.079-1.784l39.205-9.609c.787-.193 1.581.293 1.772 1.085zm-1.776-7.352c.19.793-.292 1.591-1.08 1.785L17.12 59.848c-.789.194-1.581-.294-1.772-1.085-.193-.793.29-1.592 1.077-1.784L55.63 47.37c.787-.193 1.582.293 1.774 1.085zm-1.777-7.352c.19.793-.292 1.591-1.08 1.785l-39.204 9.608c-.788.194-1.58-.292-1.773-1.085-.19-.792.29-1.592 1.078-1.784l39.206-9.609c.787-.193 1.58.293 1.773 1.085zm-1.779-7.351c.193.792-.29 1.59-1.077 1.784l-39.205 9.608c-.789.194-1.582-.292-1.772-1.085-.193-.792.29-1.592 1.077-1.784l39.205-9.609c.787-.193 1.582.293 1.772 1.086zM52.073 26.4c.19.792-.292 1.592-1.08 1.784L11.79 37.793c-.79.193-1.58-.293-1.773-1.086-.192-.792.29-1.592 1.078-1.784L50.3 25.314c.786-.193 1.58.293 1.773 1.086zm-1.778-7.352c.191.792-.292 1.592-1.079 1.784l-39.205 9.609c-.787.193-1.58-.293-1.772-1.086-.191-.792.29-1.592 1.078-1.784l39.206-9.609c.787-.192 1.58.293 1.772 1.086z"
            transform="translate(0 18)"/>
    </g>
    <g transform="translate(57 90)">
      <circle cx="46.8" cy="47.6" r="34" fill="#168B99"/>
      <path fill="#FFF" fill-rule="nonzero" d="M53.55 40.033c.865-1.004 2.38-1.116 3.384-.25.913.786 1.089 2.11.463 3.098l-.212.286L45.73 56.456c-.842.977-2.286 1.1-3.278.338l-.258-.23-5.512-5.655c-.925-.95-.905-2.469.044-3.394.863-.84 2.197-.901 3.127-.192l.267.236 3.683 3.779 9.748-11.305z"/>
    </g>
  </g>
</svg>
